<svg width="512" height="512" viewBox="0 0 135.47 135.47" xmlns="http://www.w3.org/2000/svg">
  <defs>
    <linearGradient id="a" x1="25.592" x2="147.89" y1="180.56" y2="301.5" gradientTransform="translate(-18.773 -172.38)" gradientUnits="userSpaceOnUse">
      <stop offset="0"/>
      <stop stop-color="#b1afd4" offset="1"/>
    </linearGradient>
    <linearGradient id="b" x1="56.499" x2="100.81" y1="74.624" y2="30.426" gradientTransform="matrix(.79516 0 0 .81475 -25.475 19.263)" gradientUnits="userSpaceOnUse">
      <stop stop-color="#0000d7" offset="0"/>
      <stop stop-color="#000035" offset="1"/>
    </linearGradient>
  </defs>
  <path fill="url(#a)" d="M6.35 6.35h122.77v122.77H6.35z"/>
  <path d="M40.108338 39.5920498h55.0871541v56.5953608" fill="none" stroke="#fff" stroke-linecap="round" stroke-width="8.095614999999999"/>
  <path d="M57.109 84.451H16.393c-.65574 0-1.1878-.54516-1.1878-1.217V41.518c0-.67186.53208-1.217 1.1878-1.217h40.714c.65572 0 1.1878.54516 1.1878 1.217v41.715c.0016.67378-.53021 1.2189-1.1859 1.2189z" fill="url(#b)" stroke="#fff" stroke-miterlimit="1" stroke-width="6.35" transform="translate(4.704365 4.3984353) scale(1.2749)"/>
  <path d="M28.1383019 99.4320311l13.9665295-15.9974452c.44968273-.55909465 1.37242985-.55669783 1.81979226.0025498l5.26036489 6.52914537-6.34708965 7.55620481.8056858 1.04620844 16.2384013-19.416727c.44968273-.55430102 1.351394-.55430102 1.80105123 0l13.0740995 16.1415089c.14522386.17996488.22484137.39593294.22484137.61909144v12.11040259H28.1396023z" fill="#d4aa00"/>
  <path d="M39.9706488 62.4905287c1.66042976-.00420717 2.014342 5.69523328 2.84455688 6.42728086.83024038.73213682 6.55477086-.61826275 6.83142416.80534158.2767298 1.42355334-4.45475558 3.74986337-4.92914587 4.88873154-.47445404 1.13889367 2.22176823 5.95952005 1.23331276 6.81370305-.98840447.85419575-4.75461206-3.31129777-5.98017343-3.31129777s-4.91282715 3.92133742-5.90125712 3.18928984c-.98840447-.73213682 1.47059715-5.7051775 1.15426896-6.76257956-.31627719-1.0574913-5.23027725-3.43496307-4.92914587-4.8178471.30118238-1.38288403 5.8034723-.03250995 6.71285846-.72395196.90928418-.69153126 1.5796011-6.46807766 2.96325007-6.50874697" fill="#fff" fill-rule="evenodd"/>
  <path d="M56.286819 23.4008198h55.0871541v56.5953608" fill="none" stroke="#fff" stroke-linecap="round" stroke-width="8.095614999999999"/>
  <path d="M129.12 103.77c0-.57501-.25185-1.1285-.70356-1.5382l-13.476-12.226c-.86747-.77987-2.2466-.7583-3.1381.03947l-13.596 12.187c-.45572.4097-.71556.96675-.71556 1.5454v6.7672c0 .73673.9874 1.1069 1.567.58579l10.218-9.1679v11.651c0 4.6397-4.0695 8.273-9.2623 8.273h-8.6227c-1.4911 0-1.9588.42407-1.9588 1.7754v3.6082c0 1.265.35978 1.8508 1.9588 1.8508h8.6227c9.3822 0 16.998-6.5768 17.349-14.983l.003-.0215v-.079c0-.11141-.0156-.21563-.0439-.31985v-11.738l10.174 9.1104c.59563.53549 1.615.15455 1.615-.60376v-6.7169z" fill="#0f0"/>
  <path d="M6.35 31.701c0 .57502.25185 1.1285.70356 1.5382l13.476 12.226c.86747.77988 2.2466.7583 3.1381-.03947l13.596-12.187c.45572-.40971.71556-.96675.71556-1.5453v-6.7672c0-.73674-.98741-1.1069-1.567-.5858l-10.218 9.1679v-11.651c0-4.6397 4.0695-8.273 9.2623-8.273h8.6227c1.4911 0 1.9588-.42408 1.9588-1.7754v-3.6082c0-1.265-.35978-1.8508-1.9588-1.8508h-8.6227c-9.3822 0-16.998 6.5767-17.349 14.983l-.003.02147v.07903c0 .1114.0156.21562.0439.31985v11.738l-10.174-9.1104c-.59563-.53549-1.615-.15455-1.615.60376v6.7169z" fill="#0ff"/>
</svg>
