<?xml version="1.0" encoding="UTF-8"?>
<svg version="1.1" viewBox="0 0 512 512" xmlns="http://www.w3.org/2000/svg" xmlns:xlink="http://www.w3.org/1999/xlink">
<defs>
<linearGradient id="c" x1="6.35" x2="129.12" y1="129.12" y2="7.8467" gradientTransform="matrix(3.7225 0 0 3.7225 -102.34 -36.558)" gradientUnits="userSpaceOnUse" xlink:href="#a"/>
<linearGradient id="a">
<stop stop-color="#fd6500" offset="0"/>
<stop stop-color="#ffb380" offset="1"/>
</linearGradient>
<linearGradient id="d" x1="556.63" x2="1000.6" y1="371" y2="-72.997" gradientTransform="translate(-628.83 66.58)" gradientUnits="userSpaceOnUse" xlink:href="#a"/>
<linearGradient id="b" x1="4.6089" x2="19.208" y1="13.975" y2="13.975" gradientTransform="matrix(22.465 0 0 22.465 125.11 -255.97)" gradientUnits="userSpaceOnUse">
<stop stop-color="#fff" offset="0"/>
</linearGradient>
<linearGradient id="e" x1="4.6089" x2="19.208" y1="13.975" y2="13.975" gradientTransform="matrix(22.465 0 0 22.465 -80.432 95.442)" gradientUnits="userSpaceOnUse" xlink:href="#b"/>
<linearGradient id="f" x1="4.6089" x2="19.208" y1="13.975" y2="13.975" gradientTransform="matrix(22.465 0 0 22.465 128.99 -257.14)" gradientUnits="userSpaceOnUse" xlink:href="#b"/>
</defs>
<g transform="translate(4.4434e-7 .0010318)">
<g transform="translate(106.2 40.42)">
<path d="m-78.704-12.92h457v457h-457z" color="#000000" fill="url(#c)" fill-rule="evenodd" solid-color="#000000" stop-color="#000000"/>
<rect x="-72.204" y="-6.4205" width="444" height="444" fill="none" stop-color="#000000" stroke="url(#d)" stroke-linecap="round" stroke-linejoin="round" stroke-width="20" style="paint-order:markers fill stroke"/>
</g>
<path d="m412.18 203.09 64.332 6.1951c4.8852 0.47164 8.7785 4.403 9.2413 9.3398l2.2037 23.485c0.44747 4.7721-2.434 9.1791-6.936 10.616l-61.025 19.465-7.3261 33.869 47.771 40.316c3.8879 3.2801 4.8305 8.9196 2.2185 13.239l-13.508 22.32c-2.4451 4.0406-7.3418 5.8131-11.816 4.2795l-60.794-20.827-25.085 23.201 14.019 60.439c1.1312 4.8749-1.3754 9.8215-5.9301 11.707l-24.97 10.337c-4.3183 1.7893-9.3218 0.33529-12.099-3.509l-36.039-49.941-32.051 2.3125-24.567 57.373c-1.9327 4.5098-6.7876 6.9499-11.55 5.8021l-25.681-6.1868c-4.6447-1.1203-7.9276-5.3479-7.889-10.16l0.50292-61.529-26.976-16.75-54.347 32.549c-4.1413 2.4793-9.4746 1.6369-12.734-2.0157l-17.174-19.252c-3.2499-3.6449-3.5319-9.0706-0.66968-12.966l38.02-51.763-12.6-25.569-62.979-6.6954c-4.8097-0.51128-8.6303-4.3775-9.133-9.2344l-2.553-24.737c-0.4916-4.7731 2.3566-9.2156 6.854-10.688l60.798-19.902 6.5638-32.928-47.089-38.754c-3.9105-3.2198-4.9358-8.8163-2.4075-13.166l14.014-24.116c2.4262-4.1742 7.4472-6.014 12.007-4.4001l59.606 21.109 24.547-21.76-13.722-62.136c-1.0466-4.7441 1.3349-9.5402 5.7035-11.491l24.708-11.033c4.3807-1.9562 9.553-0.5154 12.38 3.4484l36.929 51.744 32.051-2.3125 24.726-57.714c1.8398-4.2939 6.3522-6.7377 10.943-5.9276l25.483 4.5097c4.9713 0.87977 8.5882 5.3073 8.4949 10.395l-1.1789 63.159 26.753 16.25 54.828-32.776c4.113-2.4578 9.402-1.6429 12.666 1.9545l16.709 18.407c3.2488 3.5773 3.6075 8.9333 0.86021 12.852l-36.682 52.352zm-188.66-20.842c-39.264 17.533-56.659 64.067-38.854 103.94s64.066 57.982 103.33 40.449 56.659-64.067 38.854-103.94-64.068-57.981-103.33-40.449z" fill="#f4f4f4" fill-rule="evenodd" stroke-width="2.2756"/>
<g transform="scale(.9058 1.104)" fill="#00f" stroke="url(#f)" stroke-width=".018">
<path d="m242.14 76.549h14.858v-42.172l-15.252 3.1465v-11.45l15.164-3.1465h15.995v53.622h14.858v11.625h-45.624z"/>
<path d="m335.05 55.485q0-12.236-2.3162-17.218-2.2725-5.0257-7.6915-5.0257t-7.7352 5.0257q-2.3162 4.982-2.3162 17.218 0 12.368 2.3162 17.437 2.3162 5.0694 7.7352 5.0694 5.3753 0 7.6915-5.0694t2.3162-17.437zm16.825 0.1311q0 16.213-6.9922 25.041-6.9922 8.784-19.84 8.784-12.892 0-19.884-8.784-6.9922-8.8277-6.9922-25.041 0-16.257 6.9922-25.041 6.9922-8.8277 19.884-8.8277 12.848 0 19.84 8.8277 6.9922 8.784 6.9922 25.041z"/>
<path d="m366.6 76.549h14.858v-42.172l-15.252 3.1465v-11.45l15.164-3.1465h15.995v53.622h14.858v11.625h-45.624z"/>
<path d="m428.83 76.549h14.858v-42.172l-15.252 3.1465v-11.45l15.164-3.1465h15.995v53.622h14.858v11.625h-45.624z"/>
<path d="m521.74 55.485q0-12.236-2.3162-17.218-2.2725-5.0257-7.6915-5.0257t-7.7352 5.0257q-2.3162 4.982-2.3162 17.218 0 12.368 2.3162 17.437t7.7352 5.0694q5.3753 0 7.6915-5.0694t2.3162-17.437zm16.825 0.1311q0 16.213-6.9922 25.041-6.9922 8.784-19.84 8.784-12.892 0-19.884-8.784-6.9922-8.8277-6.9922-25.041 0-16.257 6.9922-25.041 6.9922-8.8277 19.884-8.8277 12.848 0 19.84 8.8277 6.9922 8.784 6.9922 25.041z"/>
</g>
<g transform="scale(.9058 1.104)" fill="#008000" stroke="url(#e)" stroke-width=".018">
<path d="m63.39 408.07q0-12.236-2.3162-17.218-2.2725-5.0257-7.6915-5.0257t-7.7352 5.0257q-2.3162 4.982-2.3162 17.218 0 12.368 2.3162 17.437 2.3162 5.0694 7.7352 5.0694 5.3753 0 7.6915-5.0694t2.3162-17.437zm16.825 0.1311q0 16.213-6.9922 25.041-6.9922 8.784-19.84 8.784-12.892 0-19.884-8.784-6.9922-8.8277-6.9922-25.041 0-16.257 6.9922-25.041 6.9922-8.8277 19.884-8.8277 12.848 0 19.84 8.8277 6.9922 8.784 6.9922 25.041z"/>
<path d="m94.942 429.13h14.858v-42.172l-15.252 3.1465v-11.45l15.164-3.1465h15.995v53.622h14.858v11.625h-45.624z"/>
<path d="m157.17 429.13h14.858v-42.172l-15.252 3.1465v-11.45l15.164-3.1465h15.995v53.622h14.858v11.625h-45.624z"/>
<path d="m250.08 408.07q0-12.236-2.3162-17.218-2.2725-5.0257-7.6915-5.0257t-7.7352 5.0257q-2.3162 4.982-2.3162 17.218 0 12.368 2.3162 17.437 2.3162 5.0694 7.7352 5.0694 5.3753 0 7.6915-5.0694t2.3162-17.437zm16.825 0.1311q0 16.213-6.9922 25.041-6.9922 8.784-19.84 8.784-12.892 0-19.884-8.784-6.9922-8.8277-6.9922-25.041 0-16.257 6.9922-25.041 6.9922-8.8277 19.884-8.8277 12.848 0 19.84 8.8277 6.9922 8.784 6.9922 25.041z"/>
<path d="m312.31 408.07q0-12.236-2.3162-17.218-2.2725-5.0257-7.6915-5.0257t-7.7352 5.0257q-2.3162 4.982-2.3162 17.218 0 12.368 2.3162 17.437t7.7352 5.0694q5.3753 0 7.6915-5.0694t2.3162-17.437zm16.825 0.1311q0 16.213-6.9922 25.041-6.9922 8.784-19.84 8.784-12.892 0-19.884-8.784-6.9922-8.8277-6.9922-25.041 0-16.257 6.9922-25.041 6.9922-8.8277 19.884-8.8277 12.848 0 19.84 8.8277 6.9922 8.784 6.9922 25.041z"/>
</g>
<path d="m216.5 313.05c4.8604 38.944 36.031 69.967 74.951 74.373 15.167 1.7174 29.646-0.57244 42.542-5.9354 24.132 24.262 93.433 94.924 93.433 94.924 1.0291 1.0214 2.4176 1.5928 3.8641 1.5928h46.705v-55.526h-28.546v-28.604h-28.546v-21.873h-22.828l-11.905-11.638 4.2901-4.0465c2.1314-2.1216 2.1817-5.458 0.1147-7.6429 0 0-6.014-5.848-11.22-11.397 5.5508-12.377 8.2798-26.311 7.3589-40.973-2.6372-41.974-35.701-76.382-77.503-80.138-54.498-4.8965-99.599 41.686-92.711 96.885zm96.772-31.465c0 17.32-14.012 31.36-31.297 31.36s-31.297-14.04-31.297-31.36 14.012-31.36 31.297-31.36 31.297 14.04 31.297 31.36z" fill="#008000" stroke-width=".051724"/>
<path d="m295.5 198.95c-4.8604-38.944-36.031-69.967-74.951-74.373-15.167-1.7174-29.646 0.57244-42.542 5.9354-24.132-24.262-93.433-94.924-93.433-94.924-1.0291-1.0214-2.4176-1.5928-3.8641-1.5928h-46.705v55.526h28.546v28.604h28.546v21.873h22.828l11.905 11.638-4.2901 4.0465c-2.1314 2.1216-2.1817 5.458-0.1147 7.6429 0 0 6.014 5.848 11.22 11.397-5.5508 12.377-8.2798 26.311-7.3589 40.973 2.6372 41.974 35.701 76.382 77.503 80.138 54.498 4.8965 99.599-41.686 92.711-96.885zm-96.772 31.465c0-17.32 14.012-31.36 31.297-31.36s31.297 14.04 31.297 31.36-14.012 31.36-31.297 31.36-31.297-14.04-31.297-31.36z" fill="#00f" stroke-width=".051724"/>
</g>
</svg>
