id,alpha,delta,magnitude,diameter,axisRatio,posAngle,Common name,NGC/IC
M110,10.092917,+41.685833,8.00,18.62,1.78,170,,NGC205
M32,10.674167,+40.866111,8.20,9.12,1.45,170,,NGC221
M31,10.684583,+41.269444,3.50,199.53,2.82,35,Andromeda Galaxy,NGC224
M103,23.345835,+60.650000,7.40,6.00,,,,NGC581
M33,23.462500,+30.660278,5.70,60.26,1.70,22,Triangulum Galaxy,NGC598
M74,24.174167,+15.783333,9.20,9.33,1.07,,,NGC628
M76,25.575420,+51.570833,12.00,4.80,,,Little Dumbbell,NGC650
M34,40.520835,+42.761667,5.20,35.00,,,,NGC1039
M77,40.670000,-0.013333,8.80,6.92,1.15,72,,NGC1068
M45,56.850000,+24.116667,1.60,110.00,,,Pleiades,
M79,81.044160,-24.524806,8.00,8.70,,,,NGC1904
M38,82.166670,+35.848333,6.40,21.00,,,,NGC1912
M1,83.633220,+22.014467,8.40,6.00,,,Crab Nebula,NGC1952
M42,83.818170,-5.390222,4.00,66.00,,,Orion Nebula,NGC1976
M43,83.880585,-5.267500,9.00,20.00,,,De Mairan's Nebula,NGC1982
M36,84.075000,+34.140000,6.00,12.00,,,,NGC1960
M78,86.687505,+0.080000,8.00,8.00,,,,NGC2068
M37,88.075005,+32.553333,5.60,24.00,,,,NGC2099
M35,92.250000,+24.350000,5.10,28.00,,,,NGC2168
M41,101.504160,-20.756667,4.50,38.00,,,,NGC2287
M50,105.675000,-8.383333,5.90,16.00,,,,NGC2323
M47,114.145830,-14.483333,4.40,30.00,,,,NGC2422
M46,115.441665,-14.810000,6.10,27.00,,,,NGC2437
M93,116.125005,-23.856667,6.20,22.00,,,,NGC2447
M48,123.429165,-5.750000,5.80,54.00,,,,NGC2548
M44,130.099995,+19.666667,3.10,95.00,,,Beehive Cluster,NGC2632
M67,132.825000,+11.800000,6.90,30.00,,,,NGC2682
M81,148.892083,+69.066389,6.90,21.38,2.09,157,Bode's Galaxy,NGC3031
M82,148.967500,+69.680278,8.40,10.72,2.14,65,Cigar Galaxy,NGC3034
M95,160.990417,+11.703333,9.70,7.08,1.66,13,,NGC3351
M96,161.690417,+11.819444,9.20,7.24,1.51,5,,NGC3368
M105,161.957083,+12.581667,9.30,5.13,1.10,,,NGC3379
M108,167.875833,+55.673333,10.10,7.76,2.88,79,,NGC3556
M97,168.699090,+55.018944,11.20,3.20,,,Owl Nebula,NGC3587
M65,169.732083,+13.092222,9.30,8.32,3.89,174,Leo Triplet,NGC3623
M66,170.062500,+12.989167,9.00,8.51,2.24,173,Leo Triplet,NGC3627
M109,179.399583,+53.376389,9.80,7.24,1.51,78,,NGC3992
M98,183.451250,+14.899444,10.10,9.55,4.17,152,,NGC4192
M99,184.706250,+14.416667,9.80,5.13,1.15,,,NGC4254
M106,184.739583,+47.303889,8.30,17.78,2.57,330,,NGC4258
M40,185.552084,+58.083056,9.70,,,,,
M61,185.613333,+4.566111,9.70,1.20,1.07,,,NGC4303
M100,185.728750,+15.821944,9.40,7.59,1.12,170,,NGC4321
M84,186.266250,+12.886667,9.30,6.46,1.12,133,,NGC4374
M85,186.350833,+18.190833,9.20,7.76,1.29,,,NGC4382
M86,186.550417,+12.945556,9.20,10.47,1.38,127,,NGC4406
M49,187.444583,+7.999722,8.40,10.96,1.23,157,,NGC4472
M87,187.741250,+12.270278,8.60,0.95,1.20,4,,NGC4486
M88,187.997083,+14.420278,9.50,7.76,1.70,138,,NGC4501
M91,188.860417,+14.495833,10.20,5.37,1.20,,,NGC4548
M89,188.916250,+12.556389,9.80,6.92,1.07,,,NGC4552
M90,189.208333,+13.162778,9.50,9.77,2.24,23,,NGC4569
M58,189.432917,+11.818333,9.80,5.62,1.29,88,,NGC4579
M68,189.867285,-26.742139,8.20,12.00,,,,NGC4590
M104,189.997083,-11.623056,8.30,8.51,1.70,90,Sombrero Galaxy,NGC4594
M59,190.509167,+11.647778,9.80,5.50,1.38,164,,NGC4621
M60,190.917083,+11.552222,8.80,7.94,1.20,104,,NGC4649
M94,192.719167,+41.119167,8.20,11.48,1.15,105,,NGC4736
M64,194.182500,+21.683333,8.50,9.77,2.00,115,Black-eye Galaxy,NGC4826
M53,198.230205,+18.168667,7.70,12.60,,,,NGC5024
M63,198.955000,+42.029444,8.60,13.18,1.66,102,Sunflower Galaxy,NGC5055
M51,202.467917,+47.194444,8.40,10.00,1.32,163,Whirlpool Galaxy,NGC5194
M83,204.250833,-29.867778,7.60,13.80,1.07,,Southern Pinwheel Galaxy,NGC5236
M3,205.547085,+28.376389,6.40,16.20,,,,NGC5272
M101,210.801667,+54.348056,7.70,21.88,1.05,,Pinwheel Galaxy,NGC5457
M102,228.030000,+55.784444,10.00,2.29,1.41,20,Spindle Galaxy,NGC5866
M5,229.639590,+2.082417,5.80,17.40,,,,NGC5904
M80,244.261785,-22.975500,7.20,8.90,,,,NGC6093
M4,245.896785,-26.526306,5.90,26.30,,,,NGC6121
M107,248.133090,-13.053194,8.10,10.00,,,,NGC6171
M13,250.421745,+36.459806,5.90,16.60,,,Hercules Globular Cluster,NGC6205
M12,251.809785,-1.947694,6.60,14.50,,,,NGC6218
M10,254.288160,-4.098833,6.60,15.10,,,,NGC6254
M62,255.303630,-30.112417,6.60,14.10,,,,NGC6266
M19,255.656880,-26.267694,7.20,13.50,,,,NGC6273
M92,259.280880,+43.136500,6.50,11.20,,,,NGC6341
M9,259.799040,-18.516167,7.90,9.30,,,,NGC6333
M14,264.400410,-3.245250,7.60,11.70,,,,NGC6402
M6,265.083330,-32.253333,4.20,15.00,,,Butterfly Cluster,NGC6405
M7,268.462500,-34.793333,3.30,80.00,,,Ptolemy Cluster,NGC6475
M23,269.266665,-18.985000,5.50,27.00,,,,NGC6494
M20,270.675000,-22.971667,6.30,29.00,,,Trifid Nebula,NGC6514
M8,270.922080,-24.380000,5.80,90.00,,,Lagoon Nebula,NGC6523
M21,271.054170,-22.490000,5.90,13.00,,,,NGC6531
M24,274.200000,-18.550000,,30.00,,,,IC4715
M16,274.699995,-13.806667,6.00,35.00,,,Eagle Nebula,NGC6611
M18,274.993755,-17.101944,6.90,9.00,,,,NGC6613
M17,275.195835,-16.171667,6.00,46.00,,,Omega Nebula,NGC6618
M28,276.136455,-24.868472,6.90,11.20,,,,NGC6626
M69,277.845840,-32.347639,7.70,7.10,,,,NGC6637
M25,277.950000,-19.113333,4.60,32.00,,,,IC4725
M22,279.100590,-23.904778,5.10,24.00,,,,NGC6656
M70,280.802085,-32.290833,8.10,7.80,,,,NGC6681
M26,281.325000,-9.383333,8.00,15.00,,,,NGC6694
M11,282.770835,-6.270000,5.80,14.00,,,Wild Duck Cluster,NGC6705
M57,283.396290,+33.028917,9.00,2.50,,,Ring Nebula,NGC6720
M54,283.763250,-30.479583,7.70,9.10,,,,NGC6715
M56,289.148745,+30.183750,8.30,7.10,,,,NGC6779
M55,294.999375,-30.962222,7.00,19.00,,,,NGC6809
M71,298.442370,+18.778250,8.30,7.20,,,,NGC6838
M27,299.901165,+22.720917,8.10,15.20,,,Dumbbell Nebula,NGC6853
M75,301.520040,-21.921889,8.60,6.00,,,,NGC6864
M29,305.987505,+38.508333,6.60,7.00,,,,NGC6913
M72,313.365915,-12.537306,9.40,5.90,,,,NGC6981
M73,314.733330,-12.635278,9.00,3.00,,,,NGC6994
M15,322.493250,+12.167167,6.40,12.30,,,,NGC7078
M39,322.924995,+48.416667,4.60,32.00,,,,NGC7092
M2,323.363160,+0.823194,6.50,12.90,,,,NGC7089
M30,325.092495,-23.179194,7.50,11.00,,,,NGC7099
M52,351.199995,+61.593333,6.90,13.00,,,,NGC7654
