===============================================================================
PixInsight Benchmark Script Changelog
===============================================================================

2021.03.27 - v1.04

- Added #feature-icon directive.

-------------------------------------------------------------------------------
2015.10.12 - v1.03

- Fixed a bug where secure network connections were failing in Core 1.8.4.1185.

-------------------------------------------------------------------------------
2015.07.22 - v1.02

- Use the new ElapsedTime PJSR object for accurate time interval measurements.
- Automatic UI scaling on PixInsight 1.8.4.

-------------------------------------------------------------------------------
2014.05.14 - v1.01

- Bugfix: On FreeBSD, the sysctl program is at "/sbin/sysctl", not "sysctl"
  (PC-BSD has a symbolic link that allows direct execution).

-------------------------------------------------------------------------------
2014.05.10 - v1.00

- First stable public release.
