<?xml version="1.0" encoding="UTF-8"?>
<svg width="512" height="512" version="1.1" viewBox="0 0 135.47 135.47" xmlns="http://www.w3.org/2000/svg" xmlns:xlink="http://www.w3.org/1999/xlink">
<defs>
<linearGradient id="a">
<stop stop-color="#fff" offset="0"/>
<stop stop-color="#fff" stop-opacity="0" offset="1"/>
</linearGradient>
<linearGradient id="m" x1="9.3909" x2="121.12" y1="61.383" y2="60.891" gradientTransform="matrix(.17811 0 0 .18374 11.618 9.6492)" gradientUnits="userSpaceOnUse" xlink:href="#a"/>
<linearGradient id="g" x1="9.3909" x2="121.12" y1="61.383" y2="60.891" gradientTransform="matrix(.076333 0 0 .078747 101.16 75.958)" gradientUnits="userSpaceOnUse" xlink:href="#a"/>
<linearGradient id="f" x1="9.3909" x2="121.12" y1="61.383" y2="60.891" gradientTransform="matrix(.15267 0 0 .15749 8.0526 64.409)" gradientUnits="userSpaceOnUse" xlink:href="#a"/>
<linearGradient id="e" x1="9.3909" x2="121.12" y1="61.383" y2="60.891" gradientTransform="matrix(.12722 0 0 .13125 58.254 64.702)" gradientUnits="userSpaceOnUse" xlink:href="#a"/>
<linearGradient id="d" x1="9.3909" x2="121.12" y1="61.383" y2="60.891" gradientTransform="matrix(.229 0 0 .23624 27.464 83.616)" gradientUnits="userSpaceOnUse" xlink:href="#a"/>
<linearGradient id="c" x1="9.3909" x2="121.12" y1="61.383" y2="60.891" gradientTransform="matrix(.15267 0 0 .15749 44.571 30.673)" gradientUnits="userSpaceOnUse" xlink:href="#a"/>
<linearGradient id="h" x1="9.3909" x2="121.12" y1="61.383" y2="60.891" gradientTransform="matrix(.12722 0 0 .13125 79.575 96.451)" gradientUnits="userSpaceOnUse" xlink:href="#a"/>
<linearGradient id="b" x1="20.036" x2="19.788" y1="3.731" y2="85.707" gradientUnits="userSpaceOnUse">
<stop offset="0"/>
<stop stop-opacity="0" offset="1"/>
</linearGradient>
<linearGradient id="l" x1="40.334" x2="40.587" y1="5.4129" y2="81.097" gradientUnits="userSpaceOnUse">
<stop stop-color="#040404" offset="0"/>
<stop stop-color="#040404" stop-opacity="0" offset="1"/>
</linearGradient>
<linearGradient id="k" x1="60.903" x2="61.343" y1="11.618" y2="64.309" gradientUnits="userSpaceOnUse">
<stop stop-color="#262626" offset="0"/>
<stop stop-color="#262626" stop-opacity="0" offset="1"/>
</linearGradient>
<linearGradient id="j" x1="81.448" x2="81.914" y1="13.152" y2="54.467" gradientUnits="userSpaceOnUse">
<stop stop-color="#010101" offset="0"/>
<stop stop-color="#010101" stop-opacity="0" offset="1"/>
</linearGradient>
<linearGradient id="i" x1="101.61" x2="101.67" y1="6.7196" y2="50.64" gradientUnits="userSpaceOnUse">
<stop stop-color="#1d1d1d" offset="0"/>
<stop stop-color="#1d1d1d" stop-opacity="0" offset="1"/>
</linearGradient>
</defs>
<g transform="translate(6.35 6.35)">
<path d="m2.0725 2.0725h118.62v118.62h-118.62z" color="#000000" fill="#4e4e4e" stroke="#000" stroke-linecap="square" stroke-linejoin="round" stroke-width="4.145" style="paint-order:markers fill stroke"/>
<circle cx="22.551" cy="20.928" r="9.2604" fill="url(#m)" stop-color="#000000" stroke-width="0" style="paint-order:markers fill stroke"/>
<circle cx="105.84" cy="80.792" r="3.9688" fill="url(#g)" stop-color="#000000" stroke-width="0" style="paint-order:markers fill stroke"/>
<circle cx="87.384" cy="104.51" r="6.6146" fill="url(#h)" stop-color="#000000" stroke-width="0" style="paint-order:markers fill stroke"/>
<circle cx="17.424" cy="74.076" r="7.9375" fill="url(#f)" stop-color="#000000" stroke-width="0" style="paint-order:markers fill stroke"/>
<circle cx="66.063" cy="72.758" r="6.6146" fill="url(#e)" stop-color="#000000" stroke-width="0" style="paint-order:markers fill stroke"/>
<circle cx="41.521" cy="98.118" r="11.906" fill="url(#d)" stop-color="#000000" stroke-width="0" style="paint-order:markers fill stroke"/>
<circle cx="53.943" cy="40.341" r="7.9375" fill="url(#c)" stop-color="#000000" stroke-width="0" style="paint-order:markers fill stroke"/>
<path d="m61.053-3.72e-6v122.77" fill="none" stroke="url(#k)" stroke-opacity=".85133" stroke-width="6.35"/>
<path d="m40.428-5.92e-6v122.77" fill="none" stroke="url(#l)" stroke-opacity=".61134" stroke-width="6.35"/>
<path d="m19.802-5.805e-6v122.77" fill="url(#b)" stroke="url(#b)" stroke-opacity=".58987" stroke-width="6.35"/>
<path d="m94.474 15.695c3.6168-0.0091 4.3877 12.405 6.1962 14 1.8084 1.5947 14.278-1.3467 14.88 1.7542 0.60277 3.1009-9.7034 8.1681-10.737 10.649-1.0335 2.4807 4.8394 12.981 2.6864 14.842-2.153 1.8606-10.357-7.2126-13.026-7.2126-2.6695 0-10.701 8.5416-12.854 6.9469-2.153-1.5947 3.2032-12.427 2.5142-14.73-0.68895-2.3035-11.393-7.482-10.737-10.494 0.65603-3.0123 12.641-0.07081 14.622-1.5769 1.9806-1.5063 3.4406-14.089 6.4547-14.177" fill="#fff" fill-rule="evenodd" stroke-miterlimit="1" stroke-width="6.35"/>
<path d="m102.31-3.71e-6v122.77" fill="none" stroke="url(#i)" stroke-opacity=".74972" stroke-width="6.35"/>
<path d="m81.679-5.25e-6v122.77" fill="none" stroke="url(#j)" stroke-opacity=".75942" stroke-width="6.35"/>
<path d="m2.0725 2.0725h118.62v118.62h-118.62z" color="#000000" fill="none" stroke="#000" stroke-linecap="square" stroke-linejoin="round" stroke-width="4.145" style="paint-order:markers fill stroke"/>
</g>
</svg>
