<?xml version="1.0" encoding="UTF-8"?>
<svg version="1.1" viewBox="0 0 512 512" xmlns="http://www.w3.org/2000/svg" xmlns:xlink="http://www.w3.org/1999/xlink">
<defs>
<linearGradient id="c" x1="6.35" x2="129.12" y1="129.12" y2="7.8467" gradientTransform="matrix(3.7225,0,0,3.7225,-102.34,-36.558)" gradientUnits="userSpaceOnUse" xlink:href="#a"/>
<linearGradient id="a">
<stop stop-color="#fd6500" offset="0"/>
<stop stop-color="#ffb380" offset="1"/>
</linearGradient>
<linearGradient id="b" x1="556.63" x2="1000.6" y1="371" y2="-72.997" gradientTransform="translate(-628.83,66.58)" gradientUnits="userSpaceOnUse" xlink:href="#a"/>
</defs>
<g transform="translate(.004002 -.000534)">
<g transform="translate(106.2 40.421)">
<path d="m-78.704-12.92h457v457h-457z" color="#000000" fill="url(#c)" fill-rule="evenodd" solid-color="#000000" stop-color="#000000"/>
<rect x="-72.204" y="-6.4205" width="444" height="444" fill="none" stop-color="#000000" stroke="url(#b)" stroke-linecap="round" stroke-linejoin="round" stroke-width="20" style="paint-order:markers fill stroke"/>
</g>
<path d="m177.66 325.55c24.101-30.974 23.996-74.952-0.4087-105.59-9.5103-11.939-21.368-20.558-34.279-25.885 0.0919-34.22 1.0543-133.19 1.0543-133.19-5e-3 -1.4499-0.58323-2.8358-1.6061-3.8586l-33.025-33.025-39.263 39.263 20.185 20.185-20.226 20.226 20.185 20.185-15.467 15.467 16.142 16.142 0.18879 16.647-5.8949-0.17226c-3.0073-7e-3 -5.4021 2.3167-5.4855 5.3232 0 0 0.11738 8.3877-0.12515 15.993-12.677 4.8268-24.459 12.75-34.176 23.769-27.815 31.545-28.766 79.255-1.8632 111.47 35.074 41.998 99.904 40.951 134.06-2.9515zm-90.677-46.179c12.247-12.247 32.083-12.267 44.305-0.0445 12.222 12.222 12.203 32.058-0.0446 44.305-12.247 12.247-32.083 12.267-44.305 0.0445-12.222-12.222-12.203-32.058 0.0446-44.305z" fill="#00f" stroke-width=".051724"/>
<path d="m382.12 488c2.9587 0 5.2934-2.3537 5.0696-5.1114l-0.68467-8.4703c-2.4087-29.756-17.502-83.955-91.53-112.62-17.013-6.8031-25.105-21.58-17.013-32.328 20.231-25.525 28.286-58.315 28.286-88.228 0-46.327-14.629-75.669-79.935-75.669h-1.2688c-65.05 0-79.622 29.344-79.622 75.669 0 29.913 8.0246 62.704 28.176 88.228 8.0606 10.748 0 25.525-16.948 32.328-73.74 28.662-88.775 82.861-91.174 112.62l-0.68278 8.4703c-0.22001 2.7577 2.1052 5.1114 5.0526 5.1114z" fill="#782121"/>
<polygon transform="matrix(16.028 0 0 16.028 183.32 103.32)" points="17.038 17.843 13.5 14.36 13.5 24 10.5 24 10.5 14.478 7.0805 17.843 5.1107 15.851 12.06 8.9958 19.008 15.851" fill="#80ffb3" stroke-width=".06239"/>
</g>
</svg>
